alembic==1.0.8
atomicwrites==1.3.0
attrs==19.1.0
autopep8==1.4.3
Click==7.0
Flask==1.0.2
Flask-Migrate==2.4.0
flask-pytest==0.0.5
Flask-SQLAlchemy==2.3.2
itsdangerous==1.1.0
Jinja2==2.10
Mako==1.0.7
MarkupSafe==1.1.1
more-itertools==6.0.0
mysqlclient==1.4.2.post1
pluggy==0.9.0
py==1.8.0
pycodestyle==2.5.0
pytest==4.3.0
python-dateutil==2.8.0
python-dotenv==0.10.1
python-editor==1.0.4
six==1.12.0
SQLAlchemy==1.3.1
Werkzeug==0.14.1
