2019-03-12 12:16:49,625 INFO: Adventures blueprint started [in /home/rudeak/Projects/fallen_stars/app/adventures/__init__.py:22]
2019-03-12 12:16:56,238 INFO: Adventures blueprint started [in /home/rudeak/Projects/fallen_stars/app/adventures/__init__.py:22]
2019-03-12 12:23:36,835 INFO: Adventures blueprint started [in /home/rudeak/Projects/fallen_stars/app/adventures/__init__.py:22]
2019-03-12 12:25:01,471 INFO: Adventures blueprint started [in /home/rudeak/Projects/fallen_stars/app/adventures/__init__.py:22]
2019-03-12 12:28:43,500 INFO: Adventures blueprint started [in /home/rudeak/Projects/fallen_stars/app/adventures/__init__.py:22]
2019-03-12 12:32:04,302 INFO: Adventures blueprint started [in /home/rudeak/Projects/fallen_stars/app/adventures/__init__.py:22]
2019-03-12 12:33:39,394 INFO: Adventures blueprint started [in /home/rudeak/Projects/fallen_stars/app/adventures/__init__.py:22]
2019-03-12 12:34:39,087 INFO: Adventures blueprint started [in /home/rudeak/Projects/fallen_stars/app/adventures/__init__.py:22]
2019-03-12 12:38:45,613 INFO: Adventures blueprint started [in /home/rudeak/Projects/fallen_stars/app/adventures/__init__.py:22]
2019-03-12 12:40:24,696 INFO: Adventures blueprint started [in /home/rudeak/Projects/fallen_stars/app/adventures/__init__.py:22]
2019-03-12 12:41:08,917 INFO: Adventures blueprint started [in /home/rudeak/Projects/fallen_stars/app/adventures/__init__.py:22]
2019-03-12 12:41:49,863 INFO: Adventures blueprint started [in /home/rudeak/Projects/fallen_stars/app/adventures/__init__.py:22]
2019-03-12 12:47:58,705 INFO: Adventures blueprint started [in /home/rudeak/Projects/fallen_stars/app/adventures/__init__.py:22]
2019-03-12 12:51:29,906 INFO: Adventures blueprint started [in /home/rudeak/Projects/fallen_stars/app/adventures/__init__.py:22]
2019-03-12 12:54:52,950 INFO: Adventures blueprint started [in /home/rudeak/Projects/fallen_stars/app/adventures/__init__.py:22]
2019-03-12 12:56:58,366 INFO: Adventures blueprint started [in /home/rudeak/Projects/fallen_stars/app/adventures/__init__.py:22]
2019-03-12 13:09:10,929 INFO: Adventures blueprint started [in /home/rudeak/Projects/fallen_stars/app/adventures/__init__.py:22]
2019-03-12 13:15:20,556 INFO: Adventures blueprint started [in /home/rudeak/Projects/fallen_stars/app/adventures/__init__.py:22]
2019-03-12 13:17:06,480 INFO: Adventures blueprint started [in /home/rudeak/Projects/fallen_stars/app/adventures/__init__.py:22]
2019-03-12 13:17:41,858 INFO: Adventures blueprint started [in /home/rudeak/Projects/fallen_stars/app/adventures/__init__.py:22]
2019-03-12 13:18:26,273 INFO: Adventures blueprint started [in /home/rudeak/Projects/fallen_stars/app/adventures/__init__.py:22]
2019-03-12 13:19:57,512 INFO: Adventures blueprint started [in /home/rudeak/Projects/fallen_stars/app/adventures/__init__.py:22]
2019-03-12 13:21:15,507 INFO: Adventures blueprint started [in /home/rudeak/Projects/fallen_stars/app/adventures/__init__.py:22]
2019-03-12 13:21:52,719 INFO: Adventures blueprint started [in /home/rudeak/Projects/fallen_stars/app/adventures/__init__.py:22]
2019-03-12 13:22:43,166 INFO: Adventures blueprint started [in /home/rudeak/Projects/fallen_stars/app/adventures/__init__.py:22]
2019-03-12 13:26:09,181 INFO: Adventures blueprint started [in /home/rudeak/Projects/fallen_stars/app/adventures/__init__.py:22]
2019-03-12 13:26:28,356 INFO: Adventures blueprint started [in /home/rudeak/Projects/fallen_stars/app/adventures/__init__.py:22]
2019-03-12 13:27:05,690 INFO: Adventures blueprint started [in /home/rudeak/Projects/fallen_stars/app/adventures/__init__.py:22]
2019-03-12 13:27:11,849 INFO: Adventures blueprint started [in /home/rudeak/Projects/fallen_stars/app/adventures/__init__.py:22]
2019-03-12 13:28:26,149 INFO: Adventures blueprint started [in /home/rudeak/Projects/fallen_stars/app/adventures/__init__.py:22]
2019-03-12 13:28:30,313 INFO: Adventures blueprint started [in /home/rudeak/Projects/fallen_stars/app/adventures/__init__.py:22]
2019-03-12 13:30:13,499 INFO: Adventures blueprint started [in /home/rudeak/Projects/fallen_stars/app/adventures/__init__.py:22]
2019-03-12 13:30:19,221 INFO: Adventures blueprint started [in /home/rudeak/Projects/fallen_stars/app/adventures/__init__.py:22]
2019-03-12 13:30:22,995 INFO: Adventures blueprint started [in /home/rudeak/Projects/fallen_stars/app/adventures/__init__.py:22]
2019-03-12 13:33:25,744 INFO: Adventures blueprint started [in /home/rudeak/Projects/fallen_stars/app/adventures/__init__.py:22]
2019-03-12 13:33:50,873 INFO: Adventures blueprint started [in /home/rudeak/Projects/fallen_stars/app/adventures/__init__.py:22]
2019-03-12 13:34:36,608 INFO: Adventures blueprint started [in /home/rudeak/Projects/fallen_stars/app/adventures/__init__.py:22]
2019-03-12 13:35:07,164 INFO: Adventures blueprint started [in /home/rudeak/Projects/fallen_stars/app/adventures/__init__.py:22]
2019-03-12 13:35:25,123 INFO: Adventures blueprint started [in /home/rudeak/Projects/fallen_stars/app/adventures/__init__.py:22]
2019-03-12 13:35:42,189 INFO: Adventures blueprint started [in /home/rudeak/Projects/fallen_stars/app/adventures/__init__.py:22]
2019-03-12 13:36:47,695 INFO: Adventures blueprint started [in /home/rudeak/Projects/fallen_stars/app/adventures/__init__.py:22]
2019-03-12 13:36:56,921 INFO: Adventures blueprint started [in /home/rudeak/Projects/fallen_stars/app/adventures/__init__.py:22]
2019-03-12 13:37:28,137 INFO: Adventures blueprint started [in /home/rudeak/Projects/fallen_stars/app/adventures/__init__.py:22]
2019-03-12 13:37:45,006 INFO: Adventures blueprint started [in /home/rudeak/Projects/fallen_stars/app/adventures/__init__.py:22]
2019-03-12 13:37:58,268 INFO: Adventures blueprint started [in /home/rudeak/Projects/fallen_stars/app/adventures/__init__.py:22]
2019-03-12 13:50:35,438 INFO: Adventures blueprint started [in /home/rudeak/Projects/fallen_stars/app/adventures/__init__.py:22]
2019-03-12 13:50:42,710 INFO: Adventures blueprint started [in /home/rudeak/Projects/fallen_stars/app/adventures/__init__.py:22]
2019-03-12 13:54:59,635 INFO: Adventures blueprint started [in /home/rudeak/Projects/fallen_stars/app/adventures/__init__.py:22]
2019-03-12 13:55:04,969 INFO: Adventures blueprint started [in /home/rudeak/Projects/fallen_stars/app/adventures/__init__.py:22]
2019-03-12 13:55:53,292 INFO: Adventures blueprint started [in /home/rudeak/Projects/fallen_stars/app/adventures/__init__.py:22]
2019-03-12 13:56:12,424 INFO: Adventures blueprint started [in /home/rudeak/Projects/fallen_stars/app/adventures/__init__.py:22]
2019-03-12 13:57:02,049 INFO: Adventures blueprint started [in /home/rudeak/Projects/fallen_stars/app/adventures/__init__.py:22]
2019-03-12 13:57:07,954 INFO: Adventures blueprint started [in /home/rudeak/Projects/fallen_stars/app/adventures/__init__.py:22]
2019-03-12 13:57:11,862 INFO: Adventures blueprint started [in /home/rudeak/Projects/fallen_stars/app/adventures/__init__.py:22]
2019-03-12 13:57:53,305 INFO: Adventures blueprint started [in /home/rudeak/Projects/fallen_stars/app/adventures/__init__.py:22]
2019-03-12 13:59:52,667 INFO: Adventures blueprint started [in /home/rudeak/Projects/fallen_stars/app/adventures/__init__.py:22]
2019-03-12 13:59:57,091 INFO: Adventures blueprint started [in /home/rudeak/Projects/fallen_stars/app/adventures/__init__.py:22]
2019-03-12 14:00:00,185 INFO: Adventures blueprint started [in /home/rudeak/Projects/fallen_stars/app/adventures/__init__.py:22]
2019-03-12 14:01:31,144 INFO: Adventures blueprint started [in /home/rudeak/Projects/fallen_stars/app/adventures/__init__.py:22]
2019-03-12 14:01:43,527 INFO: Adventures blueprint started [in /home/rudeak/Projects/fallen_stars/app/adventures/__init__.py:22]
2019-03-12 14:01:54,691 INFO: Adventures blueprint started [in /home/rudeak/Projects/fallen_stars/app/adventures/__init__.py:22]
2019-03-12 14:05:07,916 INFO: Adventures blueprint started [in /home/rudeak/Projects/fallen_stars/app/adventures/__init__.py:22]
2019-03-12 14:05:18,144 INFO: Adventures blueprint started [in /home/rudeak/Projects/fallen_stars/app/adventures/__init__.py:22]
2019-03-12 14:05:32,155 INFO: Adventures blueprint started [in /home/rudeak/Projects/fallen_stars/app/adventures/__init__.py:22]
2019-03-12 14:05:38,309 INFO: Adventures blueprint started [in /home/rudeak/Projects/fallen_stars/app/adventures/__init__.py:22]
2019-03-12 14:05:44,406 INFO: Adventures blueprint started [in /home/rudeak/Projects/fallen_stars/app/adventures/__init__.py:22]
2019-03-12 14:07:17,121 INFO: Adventures blueprint started [in /home/rudeak/Projects/fallen_stars/app/adventures/__init__.py:22]
2019-03-12 14:10:00,022 INFO: Adventures blueprint started [in /home/rudeak/Projects/fallen_stars/app/adventures/__init__.py:22]
2019-03-12 14:10:36,919 INFO: Adventures blueprint started [in /home/rudeak/Projects/fallen_stars/app/adventures/__init__.py:22]
2019-03-12 14:11:01,048 INFO: Adventures blueprint started [in /home/rudeak/Projects/fallen_stars/app/adventures/__init__.py:22]
2019-03-12 14:17:37,438 INFO: Adventures blueprint started [in /home/rudeak/Projects/fallen_stars/app/adventures/__init__.py:22]
2019-03-12 14:17:43,503 INFO: Adventures blueprint started [in /home/rudeak/Projects/fallen_stars/app/adventures/__init__.py:22]
2019-03-12 14:17:50,741 INFO: Adventures blueprint started [in /home/rudeak/Projects/fallen_stars/app/adventures/__init__.py:22]
2019-03-13 00:40:56,889 INFO: Adventures blueprint started [in /home/rudeak/Projects/fallen_stars/app/adventures/__init__.py:22]
2019-03-13 00:54:37,484 INFO: Adventures blueprint started [in /home/rudeak/Projects/fallen_stars/app/adventures/__init__.py:22]
2019-03-13 01:50:42,499 INFO: Adventures blueprint started [in /home/rudeak/Projects/fallen_stars/app/adventures/__init__.py:22]
2019-03-13 01:54:53,429 INFO: Adventures blueprint started [in /home/rudeak/Projects/fallen_stars/app/adventures/__init__.py:22]
2019-03-13 02:06:37,022 INFO: Adventures blueprint started [in /home/rudeak/Projects/fallen_stars/app/adventures/__init__.py:22]
2019-03-13 02:11:59,452 INFO: Adventures blueprint started [in /home/rudeak/Projects/fallen_stars/app/adventures/__init__.py:22]
