2019-03-11 20:54:11,218 INFO: Adventures blueprint started [in /home/rudeak/Projects/fallen_stars/app/adventures/__init__.py:22]
2019-03-11 20:54:51,628 INFO: Adventures blueprint started [in /home/rudeak/Projects/fallen_stars/app/adventures/__init__.py:22]
2019-03-11 20:54:54,821 INFO: Adventures blueprint started [in /home/rudeak/Projects/fallen_stars/app/adventures/__init__.py:22]
2019-03-11 20:59:47,668 INFO: Adventures blueprint started [in /home/rudeak/Projects/fallen_stars/app/adventures/__init__.py:22]
2019-03-11 21:05:07,915 INFO: Adventures blueprint started [in /home/rudeak/Projects/fallen_stars/app/adventures/__init__.py:22]
2019-03-11 21:06:16,324 INFO: Adventures blueprint started [in /home/rudeak/Projects/fallen_stars/app/adventures/__init__.py:22]
2019-03-11 22:31:02,341 INFO: Adventures blueprint started [in /home/rudeak/Projects/fallen_stars/app/adventures/__init__.py:22]
2019-03-11 22:32:01,043 INFO: Adventures blueprint started [in /home/rudeak/Projects/fallen_stars/app/adventures/__init__.py:22]
2019-03-11 22:36:58,792 INFO: Adventures blueprint started [in /home/rudeak/Projects/fallen_stars/app/adventures/__init__.py:22]
2019-03-11 22:39:12,243 INFO: Adventures blueprint started [in /home/rudeak/Projects/fallen_stars/app/adventures/__init__.py:22]
2019-03-11 22:40:23,401 INFO: Adventures blueprint started [in /home/rudeak/Projects/fallen_stars/app/adventures/__init__.py:22]
2019-03-11 22:40:42,466 INFO: Adventures blueprint started [in /home/rudeak/Projects/fallen_stars/app/adventures/__init__.py:22]
2019-03-11 22:43:26,528 INFO: Adventures blueprint started [in /home/rudeak/Projects/fallen_stars/app/adventures/__init__.py:22]
2019-03-11 22:46:10,845 INFO: Adventures blueprint started [in /home/rudeak/Projects/fallen_stars/app/adventures/__init__.py:22]
2019-03-11 22:46:46,630 INFO: Adventures blueprint started [in /home/rudeak/Projects/fallen_stars/app/adventures/__init__.py:22]
2019-03-11 22:47:17,397 INFO: Adventures blueprint started [in /home/rudeak/Projects/fallen_stars/app/adventures/__init__.py:22]
2019-03-11 22:47:31,441 INFO: Adventures blueprint started [in /home/rudeak/Projects/fallen_stars/app/adventures/__init__.py:22]
2019-03-11 22:48:15,004 INFO: Adventures blueprint started [in /home/rudeak/Projects/fallen_stars/app/adventures/__init__.py:22]
2019-03-11 22:48:23,224 INFO: Adventures blueprint started [in /home/rudeak/Projects/fallen_stars/app/adventures/__init__.py:22]
2019-03-11 23:00:12,724 INFO: Adventures blueprint started [in /home/rudeak/Projects/fallen_stars/app/adventures/__init__.py:22]
2019-03-11 23:05:04,501 INFO: Adventures blueprint started [in /home/rudeak/Projects/fallen_stars/app/adventures/__init__.py:22]
2019-03-11 23:05:45,537 INFO: Adventures blueprint started [in /home/rudeak/Projects/fallen_stars/app/adventures/__init__.py:22]
2019-03-11 23:06:16,422 INFO: Adventures blueprint started [in /home/rudeak/Projects/fallen_stars/app/adventures/__init__.py:22]
2019-03-11 23:07:41,266 INFO: Adventures blueprint started [in /home/rudeak/Projects/fallen_stars/app/adventures/__init__.py:22]
2019-03-11 23:11:36,656 INFO: Adventures blueprint started [in /home/rudeak/Projects/fallen_stars/app/adventures/__init__.py:22]
2019-03-11 23:13:08,455 INFO: Adventures blueprint started [in /home/rudeak/Projects/fallen_stars/app/adventures/__init__.py:22]
2019-03-11 23:13:13,370 INFO: Adventures blueprint started [in /home/rudeak/Projects/fallen_stars/app/adventures/__init__.py:22]
2019-03-11 23:21:00,034 INFO: Adventures blueprint started [in /home/rudeak/Projects/fallen_stars/app/adventures/__init__.py:22]
2019-03-11 23:21:41,609 INFO: Adventures blueprint started [in /home/rudeak/Projects/fallen_stars/app/adventures/__init__.py:22]
2019-03-11 23:21:58,022 INFO: Adventures blueprint started [in /home/rudeak/Projects/fallen_stars/app/adventures/__init__.py:22]
2019-03-11 23:23:10,804 INFO: Adventures blueprint started [in /home/rudeak/Projects/fallen_stars/app/adventures/__init__.py:22]
2019-03-11 23:47:15,078 INFO: Adventures blueprint started [in /home/rudeak/Projects/fallen_stars/app/adventures/__init__.py:22]
2019-03-11 23:47:22,885 INFO: Adventures blueprint started [in /home/rudeak/Projects/fallen_stars/app/adventures/__init__.py:22]
2019-03-11 23:48:16,984 INFO: Adventures blueprint started [in /home/rudeak/Projects/fallen_stars/app/adventures/__init__.py:22]
2019-03-11 23:50:03,375 INFO: Adventures blueprint started [in /home/rudeak/Projects/fallen_stars/app/adventures/__init__.py:22]
2019-03-11 23:50:06,704 INFO: Adventures blueprint started [in /home/rudeak/Projects/fallen_stars/app/adventures/__init__.py:22]
2019-03-11 23:52:05,524 INFO: Adventures blueprint started [in /home/rudeak/Projects/fallen_stars/app/adventures/__init__.py:22]
2019-03-11 23:52:13,116 INFO: Adventures blueprint started [in /home/rudeak/Projects/fallen_stars/app/adventures/__init__.py:22]
2019-03-11 23:52:46,243 INFO: Adventures blueprint started [in /home/rudeak/Projects/fallen_stars/app/adventures/__init__.py:22]
2019-03-12 00:01:19,661 INFO: Adventures blueprint started [in /home/rudeak/Projects/fallen_stars/app/adventures/__init__.py:22]
2019-03-12 00:02:16,805 INFO: Adventures blueprint started [in /home/rudeak/Projects/fallen_stars/app/adventures/__init__.py:22]
2019-03-12 00:03:35,960 INFO: Adventures blueprint started [in /home/rudeak/Projects/fallen_stars/app/adventures/__init__.py:22]
2019-03-12 00:05:43,090 INFO: Adventures blueprint started [in /home/rudeak/Projects/fallen_stars/app/adventures/__init__.py:22]
2019-03-12 00:05:47,121 INFO: Adventures blueprint started [in /home/rudeak/Projects/fallen_stars/app/adventures/__init__.py:22]
2019-03-12 00:08:31,166 INFO: Adventures blueprint started [in /home/rudeak/Projects/fallen_stars/app/adventures/__init__.py:22]
2019-03-12 00:09:45,516 INFO: Adventures blueprint started [in /home/rudeak/Projects/fallen_stars/app/adventures/__init__.py:22]
2019-03-12 00:09:56,365 INFO: Adventures blueprint started [in /home/rudeak/Projects/fallen_stars/app/adventures/__init__.py:22]
2019-03-12 00:10:02,884 INFO: Adventures blueprint started [in /home/rudeak/Projects/fallen_stars/app/adventures/__init__.py:22]
2019-03-12 00:10:13,126 INFO: Adventures blueprint started [in /home/rudeak/Projects/fallen_stars/app/adventures/__init__.py:22]
2019-03-12 00:10:18,010 INFO: Adventures blueprint started [in /home/rudeak/Projects/fallen_stars/app/adventures/__init__.py:22]
2019-03-12 00:10:27,784 INFO: Adventures blueprint started [in /home/rudeak/Projects/fallen_stars/app/adventures/__init__.py:22]
2019-03-12 00:10:36,955 INFO: Adventures blueprint started [in /home/rudeak/Projects/fallen_stars/app/adventures/__init__.py:22]
2019-03-12 00:11:53,606 INFO: Adventures blueprint started [in /home/rudeak/Projects/fallen_stars/app/adventures/__init__.py:22]
2019-03-12 08:44:25,957 INFO: Adventures blueprint started [in /home/rudeak/Projects/fallen_stars/app/adventures/__init__.py:22]
2019-03-12 08:44:44,499 INFO: Adventures blueprint started [in /home/rudeak/Projects/fallen_stars/app/adventures/__init__.py:22]
2019-03-12 08:46:05,067 INFO: Adventures blueprint started [in /home/rudeak/Projects/fallen_stars/app/adventures/__init__.py:22]
2019-03-12 08:50:29,497 INFO: Adventures blueprint started [in /home/rudeak/Projects/fallen_stars/app/adventures/__init__.py:22]
2019-03-12 08:50:39,322 INFO: Adventures blueprint started [in /home/rudeak/Projects/fallen_stars/app/adventures/__init__.py:22]
2019-03-12 08:50:46,188 INFO: Adventures blueprint started [in /home/rudeak/Projects/fallen_stars/app/adventures/__init__.py:22]
2019-03-12 08:55:59,599 INFO: Adventures blueprint started [in /home/rudeak/Projects/fallen_stars/app/adventures/__init__.py:22]
2019-03-12 11:39:23,680 INFO: Adventures blueprint started [in /home/rudeak/Projects/fallen_stars/app/adventures/__init__.py:22]
2019-03-12 11:39:35,418 INFO: Adventures blueprint started [in /home/rudeak/Projects/fallen_stars/app/adventures/__init__.py:22]
2019-03-12 11:39:47,901 INFO: Adventures blueprint started [in /home/rudeak/Projects/fallen_stars/app/adventures/__init__.py:22]
2019-03-12 11:44:37,992 INFO: Adventures blueprint started [in /home/rudeak/Projects/fallen_stars/app/adventures/__init__.py:22]
2019-03-12 11:46:11,024 INFO: Adventures blueprint started [in /home/rudeak/Projects/fallen_stars/app/adventures/__init__.py:22]
2019-03-12 11:46:46,355 INFO: Adventures blueprint started [in /home/rudeak/Projects/fallen_stars/app/adventures/__init__.py:22]
2019-03-12 11:49:38,056 INFO: Adventures blueprint started [in /home/rudeak/Projects/fallen_stars/app/adventures/__init__.py:22]
2019-03-12 11:57:16,853 INFO: Adventures blueprint started [in /home/rudeak/Projects/fallen_stars/app/adventures/__init__.py:22]
2019-03-12 11:57:45,343 INFO: Adventures blueprint started [in /home/rudeak/Projects/fallen_stars/app/adventures/__init__.py:22]
2019-03-12 11:59:18,605 INFO: Adventures blueprint started [in /home/rudeak/Projects/fallen_stars/app/adventures/__init__.py:22]
2019-03-12 12:02:01,850 INFO: Adventures blueprint started [in /home/rudeak/Projects/fallen_stars/app/adventures/__init__.py:22]
2019-03-12 12:02:08,687 INFO: Adventures blueprint started [in /home/rudeak/Projects/fallen_stars/app/adventures/__init__.py:22]
2019-03-12 12:03:27,731 INFO: Adventures blueprint started [in /home/rudeak/Projects/fallen_stars/app/adventures/__init__.py:22]
2019-03-12 12:05:49,375 INFO: Adventures blueprint started [in /home/rudeak/Projects/fallen_stars/app/adventures/__init__.py:22]
2019-03-12 12:10:32,204 INFO: Adventures blueprint started [in /home/rudeak/Projects/fallen_stars/app/adventures/__init__.py:22]
2019-03-12 12:10:38,496 INFO: Adventures blueprint started [in /home/rudeak/Projects/fallen_stars/app/adventures/__init__.py:22]
2019-03-12 12:16:14,801 INFO: Adventures blueprint started [in /home/rudeak/Projects/fallen_stars/app/adventures/__init__.py:22]
2019-03-12 12:16:35,832 INFO: Adventures blueprint started [in /home/rudeak/Projects/fallen_stars/app/adventures/__init__.py:22]
2019-03-12 12:16:42,309 INFO: Adventures blueprint started [in /home/rudeak/Projects/fallen_stars/app/adventures/__init__.py:22]
