2019-03-13 02:12:20,612 INFO: Adventures blueprint started [in /home/rudeak/Projects/fallen_stars/app/adventures/__init__.py:22]
2019-03-13 02:12:24,936 INFO: Adventures blueprint started [in /home/rudeak/Projects/fallen_stars/app/adventures/__init__.py:22]
2019-03-15 21:59:33,453 INFO: Adventures blueprint started [in /home/rudeak/Projects/fallen_stars/app/adventures/__init__.py:22]
2019-03-15 22:00:40,079 INFO: Adventures blueprint started [in /home/rudeak/Projects/fallen_stars/app/adventures/__init__.py:22]
2019-03-15 22:01:42,218 INFO: Adventures blueprint started [in /home/rudeak/Projects/fallen_stars/app/adventures/__init__.py:22]
2019-03-15 22:01:42,295 INFO: Adventures blueprint started [in /home/rudeak/Projects/fallen_stars/app/adventures/__init__.py:22]
2019-03-15 22:09:56,179 INFO: Adventures blueprint started [in /home/rudeak/Projects/fallen_stars/app/adventures/__init__.py:22]
2019-03-15 22:13:06,571 INFO: Adventures blueprint started [in /home/rudeak/Projects/fallen_stars/app/adventures/__init__.py:22]
2019-03-15 22:13:37,829 INFO: Adventures blueprint started [in /home/rudeak/Projects/fallen_stars/app/adventures/__init__.py:22]
2019-03-15 22:14:43,734 INFO: Adventures blueprint started [in /home/rudeak/Projects/fallen_stars/app/adventures/__init__.py:22]
2019-03-15 22:15:16,289 INFO: Adventures blueprint started [in /home/rudeak/Projects/fallen_stars/app/adventures/__init__.py:22]
2019-03-15 22:22:12,015 INFO: Adventures blueprint started [in /home/rudeak/Projects/fallen_stars/app/adventures/__init__.py:22]
2019-03-15 22:24:29,447 INFO: Adventures blueprint started [in /home/rudeak/Projects/fallen_stars/app/adventures/__init__.py:22]
2019-03-15 22:24:39,012 INFO: Adventures blueprint started [in /home/rudeak/Projects/fallen_stars/app/adventures/__init__.py:22]
2019-03-15 22:24:46,978 INFO: Adventures blueprint started [in /home/rudeak/Projects/fallen_stars/app/adventures/__init__.py:22]
2019-03-15 22:24:55,954 INFO: Adventures blueprint started [in /home/rudeak/Projects/fallen_stars/app/adventures/__init__.py:22]
2019-03-15 22:27:14,683 INFO: Adventures blueprint started [in /home/rudeak/Projects/fallen_stars/app/adventures/__init__.py:22]
2019-03-15 22:29:00,857 INFO: Adventures blueprint started [in /home/rudeak/Projects/fallen_stars/app/adventures/__init__.py:22]
2019-03-15 22:30:23,159 INFO: Adventures blueprint started [in /home/rudeak/Projects/fallen_stars/app/adventures/__init__.py:22]
2019-03-15 22:31:06,419 INFO: Adventures blueprint started [in /home/rudeak/Projects/fallen_stars/app/adventures/__init__.py:22]
2019-03-15 23:01:41,364 INFO: Adventures blueprint started [in /home/rudeak/Projects/fallen_stars/app/adventures/__init__.py:22]
2019-03-15 23:01:54,622 INFO: Adventures blueprint started [in /home/rudeak/Projects/fallen_stars/app/adventures/__init__.py:22]
2019-03-15 23:02:02,749 INFO: Adventures blueprint started [in /home/rudeak/Projects/fallen_stars/app/adventures/__init__.py:22]
2019-03-15 23:02:53,038 INFO: Adventures blueprint started [in /home/rudeak/Projects/fallen_stars/app/adventures/__init__.py:22]
2019-03-15 23:04:04,830 INFO: Adventures blueprint started [in /home/rudeak/Projects/fallen_stars/app/adventures/__init__.py:22]
2019-03-15 23:04:06,029 INFO: Adventures blueprint started [in /home/rudeak/Projects/fallen_stars/app/adventures/__init__.py:22]
2019-03-15 23:05:04,943 INFO: Adventures blueprint started [in /home/rudeak/Projects/fallen_stars/app/adventures/__init__.py:22]
2019-03-15 23:05:06,596 INFO: Adventures blueprint started [in /home/rudeak/Projects/fallen_stars/app/adventures/__init__.py:22]
2019-03-15 23:05:43,172 INFO: Adventures blueprint started [in /home/rudeak/Projects/fallen_stars/app/adventures/__init__.py:22]
2019-03-15 23:05:45,266 INFO: Adventures blueprint started [in /home/rudeak/Projects/fallen_stars/app/adventures/__init__.py:22]
2019-03-16 00:16:01,908 INFO: Adventures blueprint started [in /home/rudeak/Projects/fallen_stars/app/adventures/__init__.py:22]
2019-03-16 00:16:14,496 INFO: Adventures blueprint started [in /home/rudeak/Projects/fallen_stars/app/adventures/__init__.py:22]
2019-03-16 00:20:24,927 INFO: Adventures blueprint started [in /home/rudeak/Projects/fallen_stars/app/adventures/__init__.py:22]
2019-03-16 00:23:07,802 INFO: Adventures blueprint started [in /home/rudeak/Projects/fallen_stars/app/adventures/__init__.py:22]
2019-03-16 00:23:14,928 INFO: Adventures blueprint started [in /home/rudeak/Projects/fallen_stars/app/adventures/__init__.py:22]
2019-03-16 00:24:02,573 INFO: Adventures blueprint started [in /home/rudeak/Projects/fallen_stars/app/adventures/__init__.py:22]
2019-03-16 00:24:11,881 INFO: Adventures blueprint started [in /home/rudeak/Projects/fallen_stars/app/adventures/__init__.py:22]
2019-03-16 00:43:33,901 INFO: Adventures blueprint started [in /home/rudeak/Projects/fallen_stars/app/adventures/__init__.py:22]
2019-03-16 00:43:57,920 INFO: Adventures blueprint started [in /home/rudeak/Projects/fallen_stars/app/adventures/__init__.py:22]
2019-03-16 00:44:34,629 INFO: Adventures blueprint started [in /home/rudeak/Projects/fallen_stars/app/adventures/__init__.py:22]
2019-03-16 00:45:02,966 INFO: Adventures blueprint started [in /home/rudeak/Projects/fallen_stars/app/adventures/__init__.py:22]
2019-03-16 00:45:18,638 INFO: Adventures blueprint started [in /home/rudeak/Projects/fallen_stars/app/adventures/__init__.py:22]
2019-03-16 00:45:22,266 INFO: Adventures blueprint started [in /home/rudeak/Projects/fallen_stars/app/adventures/__init__.py:22]
2019-03-16 00:45:38,616 INFO: Adventures blueprint started [in /home/rudeak/Projects/fallen_stars/app/adventures/__init__.py:22]
2019-03-16 00:45:41,224 INFO: Adventures blueprint started [in /home/rudeak/Projects/fallen_stars/app/adventures/__init__.py:22]
2019-03-16 00:45:56,971 INFO: Adventures blueprint started [in /home/rudeak/Projects/fallen_stars/app/adventures/__init__.py:22]
2019-03-16 00:46:10,630 INFO: Adventures blueprint started [in /home/rudeak/Projects/fallen_stars/app/adventures/__init__.py:22]
2019-03-16 00:49:22,388 INFO: Adventures blueprint started [in /home/rudeak/Projects/fallen_stars/app/adventures/__init__.py:22]
2019-03-16 00:53:12,291 INFO: Adventures blueprint started [in /home/rudeak/Projects/fallen_stars/app/adventures/__init__.py:22]
2019-03-16 20:32:38,714 INFO: Adventures blueprint started [in /home/rudeak/Projects/fallen_stars/app/adventures/__init__.py:22]
2019-03-16 20:44:48,499 INFO: Adventures blueprint started [in /home/rudeak/Projects/fallen_stars/app/adventures/__init__.py:22]
2019-03-16 20:44:52,663 INFO: Adventures blueprint started [in /home/rudeak/Projects/fallen_stars/app/adventures/__init__.py:22]
2019-03-16 20:45:14,581 INFO: Adventures blueprint started [in /home/rudeak/Projects/fallen_stars/app/adventures/__init__.py:22]
2019-03-16 20:45:17,862 INFO: Adventures blueprint started [in /home/rudeak/Projects/fallen_stars/app/adventures/__init__.py:22]
2019-03-16 20:45:42,794 INFO: Adventures blueprint started [in /home/rudeak/Projects/fallen_stars/app/adventures/__init__.py:22]
2019-03-16 20:45:48,782 INFO: Adventures blueprint started [in /home/rudeak/Projects/fallen_stars/app/adventures/__init__.py:22]
2019-03-16 20:46:58,678 INFO: Adventures blueprint started [in /home/rudeak/Projects/fallen_stars/app/adventures/__init__.py:22]
2019-03-16 20:47:47,343 INFO: Adventures blueprint started [in /home/rudeak/Projects/fallen_stars/app/adventures/__init__.py:22]
2019-03-16 20:47:47,348 INFO: Adventures blueprint started [in /home/rudeak/Projects/fallen_stars/app/adventures/__init__.py:22]
2019-03-16 20:48:22,455 INFO: Adventures blueprint started [in /home/rudeak/Projects/fallen_stars/app/adventures/__init__.py:22]
2019-03-16 20:53:10,723 INFO: Adventures blueprint started [in /home/rudeak/Projects/fallen_stars/app/adventures/__init__.py:22]
2019-03-16 20:53:16,150 INFO: Adventures blueprint started [in /home/rudeak/Projects/fallen_stars/app/adventures/__init__.py:22]
2019-03-16 20:53:39,399 INFO: Adventures blueprint started [in /home/rudeak/Projects/fallen_stars/app/adventures/__init__.py:22]
2019-03-16 20:54:14,060 INFO: Adventures blueprint started [in /home/rudeak/Projects/fallen_stars/app/adventures/__init__.py:22]
2019-03-16 20:54:18,027 INFO: Adventures blueprint started [in /home/rudeak/Projects/fallen_stars/app/adventures/__init__.py:22]
2019-03-16 20:54:25,707 INFO: Adventures blueprint started [in /home/rudeak/Projects/fallen_stars/app/adventures/__init__.py:22]
2019-03-16 20:57:54,448 INFO: Adventures blueprint started [in /home/rudeak/Projects/fallen_stars/app/adventures/__init__.py:22]
2019-03-16 20:57:58,615 INFO: Adventures blueprint started [in /home/rudeak/Projects/fallen_stars/app/adventures/__init__.py:22]
2019-03-16 20:58:06,942 INFO: Adventures blueprint started [in /home/rudeak/Projects/fallen_stars/app/adventures/__init__.py:22]
2019-03-16 21:06:41,795 INFO: Adventures blueprint started [in /home/rudeak/Projects/fallen_stars/app/adventures/__init__.py:22]
2019-03-16 21:07:32,037 INFO: Adventures blueprint started [in /home/rudeak/Projects/fallen_stars/app/adventures/__init__.py:22]
2019-03-16 21:11:12,484 INFO: Adventures blueprint started [in /home/rudeak/Projects/fallen_stars/app/adventures/__init__.py:22]
2019-03-16 21:16:00,327 INFO: Adventures blueprint started [in /home/rudeak/Projects/fallen_stars/app/adventures/__init__.py:22]
2019-03-16 21:16:15,034 INFO: Adventures blueprint started [in /home/rudeak/Projects/fallen_stars/app/adventures/__init__.py:22]
2019-03-16 21:16:28,224 INFO: Adventures blueprint started [in /home/rudeak/Projects/fallen_stars/app/adventures/__init__.py:22]
2019-03-16 21:19:16,295 INFO: Adventures blueprint started [in /home/rudeak/Projects/fallen_stars/app/adventures/__init__.py:22]
2019-03-20 13:07:30,238 INFO: Adventures blueprint started [in /home/rudeak/Projects/fallen_stars/app/adventures/__init__.py:22]
2019-03-20 13:07:39,724 INFO: Adventures blueprint started [in /home/rudeak/Projects/fallen_stars/app/adventures/__init__.py:22]
2019-03-20 20:38:05,228 INFO: Adventures blueprint started [in /home/rudeak/Projects/fallen_stars/app/adventures/__init__.py:22]
