2019-03-12 13:26:09,247 INFO: Application started [in /home/rudeak/Projects/fallen_stars/app/__init__.py:37]
2019-03-12 13:26:28,422 INFO: Application started [in /home/rudeak/Projects/fallen_stars/app/__init__.py:37]
2019-03-12 13:27:05,691 INFO: Application started [in /home/rudeak/Projects/fallen_stars/app/__init__.py:37]
2019-03-12 13:27:11,849 INFO: Application started [in /home/rudeak/Projects/fallen_stars/app/__init__.py:37]
2019-03-12 13:28:26,150 INFO: Application started [in /home/rudeak/Projects/fallen_stars/app/__init__.py:37]
2019-03-12 13:28:30,313 INFO: Application started [in /home/rudeak/Projects/fallen_stars/app/__init__.py:37]
2019-03-12 13:30:13,568 INFO: Application started [in /home/rudeak/Projects/fallen_stars/app/__init__.py:37]
2019-03-12 13:30:19,221 INFO: Application started [in /home/rudeak/Projects/fallen_stars/app/__init__.py:37]
2019-03-12 13:30:22,996 INFO: Application started [in /home/rudeak/Projects/fallen_stars/app/__init__.py:37]
2019-03-12 13:33:25,911 INFO: Application started [in /home/rudeak/Projects/fallen_stars/app/__init__.py:37]
2019-03-12 13:33:51,024 INFO: Application started [in /home/rudeak/Projects/fallen_stars/app/__init__.py:37]
2019-03-12 13:34:36,788 INFO: Application started [in /home/rudeak/Projects/fallen_stars/app/__init__.py:37]
2019-03-12 13:35:07,348 INFO: Application started [in /home/rudeak/Projects/fallen_stars/app/__init__.py:37]
2019-03-12 13:35:25,237 INFO: Application started [in /home/rudeak/Projects/fallen_stars/app/__init__.py:37]
2019-03-12 13:35:42,332 INFO: Application started [in /home/rudeak/Projects/fallen_stars/app/__init__.py:37]
2019-03-12 13:36:57,084 INFO: Application started [in /home/rudeak/Projects/fallen_stars/app/__init__.py:37]
2019-03-12 13:37:28,190 INFO: Application started [in /home/rudeak/Projects/fallen_stars/app/__init__.py:37]
2019-03-12 13:37:45,057 INFO: Application started [in /home/rudeak/Projects/fallen_stars/app/__init__.py:37]
2019-03-12 13:37:58,313 INFO: Application started [in /home/rudeak/Projects/fallen_stars/app/__init__.py:37]
2019-03-12 13:50:35,440 INFO: Application started [in /home/rudeak/Projects/fallen_stars/app/__init__.py:37]
2019-03-12 13:50:42,711 INFO: Application started [in /home/rudeak/Projects/fallen_stars/app/__init__.py:37]
2019-03-12 13:54:59,820 INFO: Application started [in /home/rudeak/Projects/fallen_stars/app/__init__.py:37]
2019-03-12 13:55:04,970 INFO: Application started [in /home/rudeak/Projects/fallen_stars/app/__init__.py:37]
2019-03-12 13:55:53,306 INFO: Application started [in /home/rudeak/Projects/fallen_stars/app/__init__.py:37]
2019-03-12 13:56:12,424 INFO: Application started [in /home/rudeak/Projects/fallen_stars/app/__init__.py:37]
2019-03-12 13:57:02,051 INFO: Application started [in /home/rudeak/Projects/fallen_stars/app/__init__.py:37]
2019-03-12 13:57:07,955 INFO: Application started [in /home/rudeak/Projects/fallen_stars/app/__init__.py:37]
2019-03-12 13:57:11,863 INFO: Application started [in /home/rudeak/Projects/fallen_stars/app/__init__.py:37]
2019-03-12 13:57:53,307 INFO: Application started [in /home/rudeak/Projects/fallen_stars/app/__init__.py:37]
2019-03-12 13:59:52,667 INFO: Application started [in /home/rudeak/Projects/fallen_stars/app/__init__.py:37]
2019-03-12 13:59:57,094 INFO: Application started [in /home/rudeak/Projects/fallen_stars/app/__init__.py:37]
2019-03-12 14:00:00,186 INFO: Application started [in /home/rudeak/Projects/fallen_stars/app/__init__.py:37]
2019-03-12 14:01:31,145 INFO: Application started [in /home/rudeak/Projects/fallen_stars/app/__init__.py:37]
2019-03-12 14:01:43,527 INFO: Application started [in /home/rudeak/Projects/fallen_stars/app/__init__.py:37]
2019-03-12 14:01:54,793 INFO: Application started [in /home/rudeak/Projects/fallen_stars/app/__init__.py:37]
2019-03-12 14:05:07,990 INFO: Application started [in /home/rudeak/Projects/fallen_stars/app/__init__.py:37]
2019-03-12 14:05:18,218 INFO: Application started [in /home/rudeak/Projects/fallen_stars/app/__init__.py:37]
2019-03-12 14:05:32,228 INFO: Application started [in /home/rudeak/Projects/fallen_stars/app/__init__.py:37]
2019-03-12 14:05:38,310 INFO: Application started [in /home/rudeak/Projects/fallen_stars/app/__init__.py:37]
2019-03-12 14:05:44,406 INFO: Application started [in /home/rudeak/Projects/fallen_stars/app/__init__.py:37]
2019-03-12 14:07:17,195 INFO: Application started [in /home/rudeak/Projects/fallen_stars/app/__init__.py:37]
2019-03-12 14:11:01,123 INFO: Application started [in /home/rudeak/Projects/fallen_stars/app/__init__.py:37]
2019-03-12 14:17:37,458 INFO: Application started [in /home/rudeak/Projects/fallen_stars/app/__init__.py:37]
2019-03-12 14:17:43,504 INFO: Application started [in /home/rudeak/Projects/fallen_stars/app/__init__.py:37]
2019-03-12 14:17:50,742 INFO: Application started [in /home/rudeak/Projects/fallen_stars/app/__init__.py:37]
2019-03-13 00:54:37,496 INFO: Application started [in /home/rudeak/Projects/fallen_stars/app/__init__.py:37]
2019-03-13 01:50:42,775 INFO: Application started [in /home/rudeak/Projects/fallen_stars/app/__init__.py:37]
2019-03-13 01:54:53,430 INFO: Application started [in /home/rudeak/Projects/fallen_stars/app/__init__.py:37]
2019-03-13 02:06:37,023 INFO: Application started [in /home/rudeak/Projects/fallen_stars/app/__init__.py:37]
2019-03-13 02:11:59,455 INFO: Application started [in /home/rudeak/Projects/fallen_stars/app/__init__.py:37]
2019-03-13 02:12:20,622 INFO: Application started [in /home/rudeak/Projects/fallen_stars/app/__init__.py:37]
2019-03-13 02:12:24,936 INFO: Application started [in /home/rudeak/Projects/fallen_stars/app/__init__.py:37]
2019-03-15 21:59:33,466 INFO: Application started [in /home/rudeak/Projects/fallen_stars/app/__init__.py:37]
2019-03-15 22:00:40,472 INFO: Application started [in /home/rudeak/Projects/fallen_stars/app/__init__.py:37]
2019-03-15 22:01:42,295 INFO: Application started [in /home/rudeak/Projects/fallen_stars/app/__init__.py:37]
2019-03-15 22:09:56,193 INFO: Application started [in /home/rudeak/Projects/fallen_stars/app/__init__.py:37]
2019-03-15 22:13:06,575 INFO: Application started [in /home/rudeak/Projects/fallen_stars/app/__init__.py:37]
2019-03-15 22:13:37,830 INFO: Application started [in /home/rudeak/Projects/fallen_stars/app/__init__.py:37]
2019-03-15 22:14:43,735 INFO: Application started [in /home/rudeak/Projects/fallen_stars/app/__init__.py:37]
2019-03-15 22:15:16,292 INFO: Application started [in /home/rudeak/Projects/fallen_stars/app/__init__.py:37]
2019-03-15 22:22:12,169 INFO: Application started [in /home/rudeak/Projects/fallen_stars/app/__init__.py:37]
2019-03-15 22:24:29,451 INFO: Application started [in /home/rudeak/Projects/fallen_stars/app/__init__.py:37]
2019-03-15 22:24:39,012 INFO: Application started [in /home/rudeak/Projects/fallen_stars/app/__init__.py:37]
2019-03-15 22:24:46,978 INFO: Application started [in /home/rudeak/Projects/fallen_stars/app/__init__.py:37]
2019-03-15 22:24:56,028 INFO: Application started [in /home/rudeak/Projects/fallen_stars/app/__init__.py:37]
2019-03-15 22:27:14,771 INFO: Application started [in /home/rudeak/Projects/fallen_stars/app/__init__.py:37]
2019-03-15 22:29:00,934 INFO: Application started [in /home/rudeak/Projects/fallen_stars/app/__init__.py:37]
2019-03-15 22:30:23,231 INFO: Application started [in /home/rudeak/Projects/fallen_stars/app/__init__.py:37]
2019-03-15 22:31:06,501 INFO: Application started [in /home/rudeak/Projects/fallen_stars/app/__init__.py:37]
2019-03-15 23:01:41,402 INFO: Application started [in /home/rudeak/Projects/fallen_stars/app/__init__.py:37]
2019-03-15 23:01:54,625 INFO: Application started [in /home/rudeak/Projects/fallen_stars/app/__init__.py:37]
2019-03-15 23:02:02,874 INFO: Application started [in /home/rudeak/Projects/fallen_stars/app/__init__.py:37]
2019-03-15 23:04:06,101 INFO: Application started [in /home/rudeak/Projects/fallen_stars/app/__init__.py:37]
2019-03-15 23:05:06,667 INFO: Application started [in /home/rudeak/Projects/fallen_stars/app/__init__.py:37]
2019-03-15 23:05:45,339 INFO: Application started [in /home/rudeak/Projects/fallen_stars/app/__init__.py:37]
2019-03-16 00:16:02,023 INFO: Application started [in /home/rudeak/Projects/fallen_stars/app/__init__.py:37]
2019-03-16 00:16:14,496 INFO: Application started [in /home/rudeak/Projects/fallen_stars/app/__init__.py:37]
2019-03-16 00:20:24,927 INFO: Application started [in /home/rudeak/Projects/fallen_stars/app/__init__.py:37]
2019-03-16 00:23:07,803 INFO: Application started [in /home/rudeak/Projects/fallen_stars/app/__init__.py:37]
2019-03-16 00:24:11,956 INFO: Application started [in /home/rudeak/Projects/fallen_stars/app/__init__.py:37]
2019-03-16 00:43:34,078 INFO: Application started [in /home/rudeak/Projects/fallen_stars/app/__init__.py:37]
2019-03-16 00:43:57,969 INFO: Application started [in /home/rudeak/Projects/fallen_stars/app/__init__.py:37]
2019-03-16 00:44:34,683 INFO: Application started [in /home/rudeak/Projects/fallen_stars/app/__init__.py:37]
2019-03-16 00:45:03,006 INFO: Application started [in /home/rudeak/Projects/fallen_stars/app/__init__.py:37]
2019-03-16 00:45:22,313 INFO: Application started [in /home/rudeak/Projects/fallen_stars/app/__init__.py:37]
2019-03-16 00:45:41,273 INFO: Application started [in /home/rudeak/Projects/fallen_stars/app/__init__.py:37]
2019-03-16 00:46:10,687 INFO: Application started [in /home/rudeak/Projects/fallen_stars/app/__init__.py:37]
2019-03-16 00:53:12,421 INFO: Application started [in /home/rudeak/Projects/fallen_stars/app/__init__.py:37]
2019-03-16 20:45:43,092 INFO: Application started [in /home/rudeak/Projects/fallen_stars/app/__init__.py:37]
2019-03-16 20:45:48,858 INFO: Application started [in /home/rudeak/Projects/fallen_stars/app/__init__.py:37]
2019-03-16 20:46:58,757 INFO: Application started [in /home/rudeak/Projects/fallen_stars/app/__init__.py:37]
2019-03-16 20:47:47,545 INFO: Application started [in /home/rudeak/Projects/fallen_stars/app/__init__.py:37]
2019-03-16 20:48:22,518 INFO: Application started [in /home/rudeak/Projects/fallen_stars/app/__init__.py:37]
