2019-03-11 14:20:20,416 INFO: Application started [in /home/rudeak/Projects/fallen_stars/app/__init__.py:37]
2019-03-11 15:05:49,587 INFO: Application started [in /home/rudeak/Projects/fallen_stars/app/__init__.py:37]
2019-03-11 15:06:22,139 INFO: Application started [in /home/rudeak/Projects/fallen_stars/app/__init__.py:37]
2019-03-11 15:24:01,153 INFO: Application started [in /home/rudeak/Projects/fallen_stars/app/__init__.py:37]
2019-03-11 15:24:55,193 INFO: Application started [in /home/rudeak/Projects/fallen_stars/app/__init__.py:37]
2019-03-11 15:41:43,461 INFO: Application started [in /home/rudeak/Projects/fallen_stars/app/__init__.py:37]
2019-03-11 16:16:27,533 INFO: Application started [in /home/rudeak/Projects/fallen_stars/app/__init__.py:37]
2019-03-11 16:16:38,877 INFO: Application started [in /home/rudeak/Projects/fallen_stars/app/__init__.py:37]
2019-03-11 16:16:41,889 INFO: Application started [in /home/rudeak/Projects/fallen_stars/app/__init__.py:37]
2019-03-11 16:44:17,764 INFO: Application started [in /home/rudeak/Projects/fallen_stars/app/__init__.py:37]
2019-03-11 16:44:23,340 INFO: Application started [in /home/rudeak/Projects/fallen_stars/app/__init__.py:37]
2019-03-11 16:44:33,447 INFO: Application started [in /home/rudeak/Projects/fallen_stars/app/__init__.py:37]
2019-03-11 17:02:03,031 INFO: Application started [in /home/rudeak/Projects/fallen_stars/app/__init__.py:37]
2019-03-11 17:02:07,041 INFO: Application started [in /home/rudeak/Projects/fallen_stars/app/__init__.py:37]
2019-03-11 17:12:25,487 INFO: Application started [in /home/rudeak/Projects/fallen_stars/app/__init__.py:37]
2019-03-11 17:15:30,019 INFO: Application started [in /home/rudeak/Projects/fallen_stars/app/__init__.py:37]
2019-03-11 17:17:12,247 INFO: Application started [in /home/rudeak/Projects/fallen_stars/app/__init__.py:37]
2019-03-11 18:58:08,958 INFO: Application started [in /home/rudeak/Projects/fallen_stars/app/__init__.py:37]
2019-03-11 18:59:13,028 INFO: Application started [in /home/rudeak/Projects/fallen_stars/app/__init__.py:37]
2019-03-11 18:59:42,165 INFO: Application started [in /home/rudeak/Projects/fallen_stars/app/__init__.py:37]
2019-03-11 19:00:41,914 INFO: Application started [in /home/rudeak/Projects/fallen_stars/app/__init__.py:37]
2019-03-11 19:03:07,962 INFO: Application started [in /home/rudeak/Projects/fallen_stars/app/__init__.py:37]
2019-03-11 19:07:13,058 INFO: Application started [in /home/rudeak/Projects/fallen_stars/app/__init__.py:37]
2019-03-11 19:07:46,811 INFO: Application started [in /home/rudeak/Projects/fallen_stars/app/__init__.py:37]
2019-03-11 19:08:14,659 INFO: Application started [in /home/rudeak/Projects/fallen_stars/app/__init__.py:37]
2019-03-11 19:09:25,968 INFO: Application started [in /home/rudeak/Projects/fallen_stars/app/__init__.py:37]
2019-03-11 19:12:32,041 INFO: Application started [in /home/rudeak/Projects/fallen_stars/app/__init__.py:37]
2019-03-11 19:13:47,115 INFO: Application started [in /home/rudeak/Projects/fallen_stars/app/__init__.py:37]
2019-03-11 19:14:04,264 INFO: Application started [in /home/rudeak/Projects/fallen_stars/app/__init__.py:37]
2019-03-11 19:14:24,507 INFO: Application started [in /home/rudeak/Projects/fallen_stars/app/__init__.py:37]
2019-03-11 19:16:29,743 INFO: Application started [in /home/rudeak/Projects/fallen_stars/app/__init__.py:37]
2019-03-11 19:20:36,614 INFO: Application started [in /home/rudeak/Projects/fallen_stars/app/__init__.py:37]
2019-03-11 19:22:28,993 INFO: Application started [in /home/rudeak/Projects/fallen_stars/app/__init__.py:37]
2019-03-11 19:24:19,101 INFO: Application started [in /home/rudeak/Projects/fallen_stars/app/__init__.py:37]
2019-03-11 19:30:10,697 INFO: Application started [in /home/rudeak/Projects/fallen_stars/app/__init__.py:37]
2019-03-11 19:40:30,300 INFO: Application started [in /home/rudeak/Projects/fallen_stars/app/__init__.py:37]
2019-03-11 19:41:05,332 INFO: Application started [in /home/rudeak/Projects/fallen_stars/app/__init__.py:37]
2019-03-11 19:41:28,658 INFO: Application started [in /home/rudeak/Projects/fallen_stars/app/__init__.py:37]
2019-03-11 19:41:35,787 INFO: Application started [in /home/rudeak/Projects/fallen_stars/app/__init__.py:37]
2019-03-11 19:41:52,034 INFO: Application started [in /home/rudeak/Projects/fallen_stars/app/__init__.py:37]
2019-03-11 19:41:58,997 INFO: Application started [in /home/rudeak/Projects/fallen_stars/app/__init__.py:37]
2019-03-11 19:43:15,784 INFO: Application started [in /home/rudeak/Projects/fallen_stars/app/__init__.py:37]
2019-03-11 19:44:00,357 INFO: Application started [in /home/rudeak/Projects/fallen_stars/app/__init__.py:37]
2019-03-11 19:45:15,255 INFO: Application started [in /home/rudeak/Projects/fallen_stars/app/__init__.py:37]
2019-03-11 19:45:36,373 INFO: Application started [in /home/rudeak/Projects/fallen_stars/app/__init__.py:37]
2019-03-11 19:45:41,209 INFO: Application started [in /home/rudeak/Projects/fallen_stars/app/__init__.py:37]
2019-03-11 19:46:46,231 INFO: Application started [in /home/rudeak/Projects/fallen_stars/app/__init__.py:37]
2019-03-11 19:46:50,479 INFO: Application started [in /home/rudeak/Projects/fallen_stars/app/__init__.py:37]
2019-03-11 19:46:55,282 INFO: Application started [in /home/rudeak/Projects/fallen_stars/app/__init__.py:37]
2019-03-11 19:48:24,250 INFO: Application started [in /home/rudeak/Projects/fallen_stars/app/__init__.py:37]
2019-03-11 19:51:46,916 INFO: Application started [in /home/rudeak/Projects/fallen_stars/app/__init__.py:37]
2019-03-11 19:52:27,110 INFO: Application started [in /home/rudeak/Projects/fallen_stars/app/__init__.py:37]
2019-03-11 19:54:59,485 INFO: Application started [in /home/rudeak/Projects/fallen_stars/app/__init__.py:37]
2019-03-11 19:56:15,012 INFO: Application started [in /home/rudeak/Projects/fallen_stars/app/__init__.py:37]
2019-03-11 19:57:13,083 INFO: Application started [in /home/rudeak/Projects/fallen_stars/app/__init__.py:37]
2019-03-11 20:04:55,071 INFO: Application started [in /home/rudeak/Projects/fallen_stars/app/__init__.py:37]
2019-03-11 20:05:23,277 INFO: Application started [in /home/rudeak/Projects/fallen_stars/app/__init__.py:37]
2019-03-11 20:05:56,731 INFO: Application started [in /home/rudeak/Projects/fallen_stars/app/__init__.py:37]
2019-03-11 20:11:11,338 INFO: Application started [in /home/rudeak/Projects/fallen_stars/app/__init__.py:37]
2019-03-11 20:13:22,443 INFO: Application started [in /home/rudeak/Projects/fallen_stars/app/__init__.py:37]
2019-03-11 20:13:57,561 INFO: Application started [in /home/rudeak/Projects/fallen_stars/app/__init__.py:37]
2019-03-11 20:14:26,971 INFO: Application started [in /home/rudeak/Projects/fallen_stars/app/__init__.py:37]
2019-03-11 20:14:49,125 INFO: Application started [in /home/rudeak/Projects/fallen_stars/app/__init__.py:37]
2019-03-11 20:17:06,309 INFO: Application started [in /home/rudeak/Projects/fallen_stars/app/__init__.py:37]
2019-03-11 20:17:25,189 INFO: Application started [in /home/rudeak/Projects/fallen_stars/app/__init__.py:37]
2019-03-11 20:18:38,172 INFO: Application started [in /home/rudeak/Projects/fallen_stars/app/__init__.py:37]
2019-03-11 20:33:22,715 INFO: Application started [in /home/rudeak/Projects/fallen_stars/app/__init__.py:37]
2019-03-11 20:34:52,344 INFO: Application started [in /home/rudeak/Projects/fallen_stars/app/__init__.py:37]
2019-03-11 20:39:15,132 INFO: Application started [in /home/rudeak/Projects/fallen_stars/app/__init__.py:37]
2019-03-11 20:40:45,002 INFO: Application started [in /home/rudeak/Projects/fallen_stars/app/__init__.py:37]
2019-03-11 20:41:18,003 INFO: Application started [in /home/rudeak/Projects/fallen_stars/app/__init__.py:37]
2019-03-11 20:42:19,984 INFO: Application started [in /home/rudeak/Projects/fallen_stars/app/__init__.py:37]
2019-03-11 20:43:25,304 INFO: Application started [in /home/rudeak/Projects/fallen_stars/app/__init__.py:37]
2019-03-11 20:45:43,311 INFO: Application started [in /home/rudeak/Projects/fallen_stars/app/__init__.py:37]
2019-03-11 20:46:49,075 INFO: Application started [in /home/rudeak/Projects/fallen_stars/app/__init__.py:37]
2019-03-11 20:48:21,655 INFO: Application started [in /home/rudeak/Projects/fallen_stars/app/__init__.py:37]
2019-03-11 20:49:08,952 INFO: Application started [in /home/rudeak/Projects/fallen_stars/app/__init__.py:37]
2019-03-11 20:49:29,470 INFO: Application started [in /home/rudeak/Projects/fallen_stars/app/__init__.py:37]
2019-03-11 20:49:39,967 INFO: Application started [in /home/rudeak/Projects/fallen_stars/app/__init__.py:37]
2019-03-11 20:51:48,873 INFO: Application started [in /home/rudeak/Projects/fallen_stars/app/__init__.py:37]
2019-03-11 20:53:00,771 INFO: Application started [in /home/rudeak/Projects/fallen_stars/app/__init__.py:37]
2019-03-11 20:53:23,317 INFO: Application started [in /home/rudeak/Projects/fallen_stars/app/__init__.py:37]
2019-03-11 20:54:08,222 INFO: Application started [in /home/rudeak/Projects/fallen_stars/app/__init__.py:37]
2019-03-11 20:54:11,285 INFO: Application started [in /home/rudeak/Projects/fallen_stars/app/__init__.py:37]
2019-03-11 20:54:51,693 INFO: Application started [in /home/rudeak/Projects/fallen_stars/app/__init__.py:37]
2019-03-11 20:54:54,886 INFO: Application started [in /home/rudeak/Projects/fallen_stars/app/__init__.py:37]
2019-03-11 20:59:47,768 INFO: Application started [in /home/rudeak/Projects/fallen_stars/app/__init__.py:37]
2019-03-11 21:05:08,068 INFO: Application started [in /home/rudeak/Projects/fallen_stars/app/__init__.py:37]
2019-03-11 21:06:16,452 INFO: Application started [in /home/rudeak/Projects/fallen_stars/app/__init__.py:37]
2019-03-11 22:31:02,562 INFO: Application started [in /home/rudeak/Projects/fallen_stars/app/__init__.py:37]
2019-03-11 22:32:01,169 INFO: Application started [in /home/rudeak/Projects/fallen_stars/app/__init__.py:37]
2019-03-11 22:36:58,924 INFO: Application started [in /home/rudeak/Projects/fallen_stars/app/__init__.py:37]
2019-03-11 22:39:12,394 INFO: Application started [in /home/rudeak/Projects/fallen_stars/app/__init__.py:37]
