2019-03-11 22:40:23,546 INFO: Application started [in /home/rudeak/Projects/fallen_stars/app/__init__.py:37]
2019-03-11 22:40:42,610 INFO: Application started [in /home/rudeak/Projects/fallen_stars/app/__init__.py:37]
2019-03-11 22:43:26,592 INFO: Application started [in /home/rudeak/Projects/fallen_stars/app/__init__.py:37]
2019-03-11 22:46:10,994 INFO: Application started [in /home/rudeak/Projects/fallen_stars/app/__init__.py:37]
2019-03-11 22:46:46,773 INFO: Application started [in /home/rudeak/Projects/fallen_stars/app/__init__.py:37]
2019-03-11 22:47:17,540 INFO: Application started [in /home/rudeak/Projects/fallen_stars/app/__init__.py:37]
2019-03-11 22:47:31,576 INFO: Application started [in /home/rudeak/Projects/fallen_stars/app/__init__.py:37]
2019-03-11 22:48:15,144 INFO: Application started [in /home/rudeak/Projects/fallen_stars/app/__init__.py:37]
2019-03-11 22:48:23,289 INFO: Application started [in /home/rudeak/Projects/fallen_stars/app/__init__.py:37]
2019-03-11 23:00:12,795 INFO: Application started [in /home/rudeak/Projects/fallen_stars/app/__init__.py:37]
2019-03-11 23:05:04,641 INFO: Application started [in /home/rudeak/Projects/fallen_stars/app/__init__.py:37]
2019-03-11 23:05:45,697 INFO: Application started [in /home/rudeak/Projects/fallen_stars/app/__init__.py:37]
2019-03-11 23:06:16,552 INFO: Application started [in /home/rudeak/Projects/fallen_stars/app/__init__.py:37]
2019-03-11 23:07:41,403 INFO: Application started [in /home/rudeak/Projects/fallen_stars/app/__init__.py:37]
2019-03-11 23:11:36,721 INFO: Application started [in /home/rudeak/Projects/fallen_stars/app/__init__.py:37]
2019-03-11 23:13:08,521 INFO: Application started [in /home/rudeak/Projects/fallen_stars/app/__init__.py:37]
2019-03-11 23:13:13,435 INFO: Application started [in /home/rudeak/Projects/fallen_stars/app/__init__.py:37]
2019-03-11 23:21:00,153 INFO: Application started [in /home/rudeak/Projects/fallen_stars/app/__init__.py:37]
2019-03-11 23:21:41,747 INFO: Application started [in /home/rudeak/Projects/fallen_stars/app/__init__.py:37]
2019-03-11 23:21:58,215 INFO: Application started [in /home/rudeak/Projects/fallen_stars/app/__init__.py:37]
2019-03-11 23:23:10,961 INFO: Application started [in /home/rudeak/Projects/fallen_stars/app/__init__.py:37]
2019-03-11 23:47:15,079 INFO: Application started [in /home/rudeak/Projects/fallen_stars/app/__init__.py:37]
2019-03-11 23:47:22,885 INFO: Application started [in /home/rudeak/Projects/fallen_stars/app/__init__.py:37]
2019-03-11 23:48:16,984 INFO: Application started [in /home/rudeak/Projects/fallen_stars/app/__init__.py:37]
2019-03-11 23:50:03,375 INFO: Application started [in /home/rudeak/Projects/fallen_stars/app/__init__.py:37]
2019-03-11 23:50:06,704 INFO: Application started [in /home/rudeak/Projects/fallen_stars/app/__init__.py:37]
2019-03-11 23:52:05,524 INFO: Application started [in /home/rudeak/Projects/fallen_stars/app/__init__.py:37]
2019-03-11 23:52:13,116 INFO: Application started [in /home/rudeak/Projects/fallen_stars/app/__init__.py:37]
2019-03-11 23:52:46,244 INFO: Application started [in /home/rudeak/Projects/fallen_stars/app/__init__.py:37]
2019-03-12 00:01:19,662 INFO: Application started [in /home/rudeak/Projects/fallen_stars/app/__init__.py:37]
2019-03-12 00:02:16,806 INFO: Application started [in /home/rudeak/Projects/fallen_stars/app/__init__.py:37]
2019-03-12 00:03:35,960 INFO: Application started [in /home/rudeak/Projects/fallen_stars/app/__init__.py:37]
2019-03-12 00:05:43,090 INFO: Application started [in /home/rudeak/Projects/fallen_stars/app/__init__.py:37]
2019-03-12 00:05:47,122 INFO: Application started [in /home/rudeak/Projects/fallen_stars/app/__init__.py:37]
2019-03-12 00:08:31,284 INFO: Application started [in /home/rudeak/Projects/fallen_stars/app/__init__.py:37]
2019-03-12 00:09:45,583 INFO: Application started [in /home/rudeak/Projects/fallen_stars/app/__init__.py:37]
2019-03-12 00:09:56,365 INFO: Application started [in /home/rudeak/Projects/fallen_stars/app/__init__.py:37]
2019-03-12 00:10:02,885 INFO: Application started [in /home/rudeak/Projects/fallen_stars/app/__init__.py:37]
2019-03-12 00:10:13,126 INFO: Application started [in /home/rudeak/Projects/fallen_stars/app/__init__.py:37]
2019-03-12 00:10:18,011 INFO: Application started [in /home/rudeak/Projects/fallen_stars/app/__init__.py:37]
2019-03-12 00:10:27,785 INFO: Application started [in /home/rudeak/Projects/fallen_stars/app/__init__.py:37]
2019-03-12 00:10:36,956 INFO: Application started [in /home/rudeak/Projects/fallen_stars/app/__init__.py:37]
2019-03-12 00:11:53,678 INFO: Application started [in /home/rudeak/Projects/fallen_stars/app/__init__.py:37]
2019-03-12 08:44:25,972 INFO: Application started [in /home/rudeak/Projects/fallen_stars/app/__init__.py:37]
2019-03-12 08:44:44,499 INFO: Application started [in /home/rudeak/Projects/fallen_stars/app/__init__.py:37]
2019-03-12 08:46:05,068 INFO: Application started [in /home/rudeak/Projects/fallen_stars/app/__init__.py:37]
2019-03-12 08:50:29,497 INFO: Application started [in /home/rudeak/Projects/fallen_stars/app/__init__.py:37]
2019-03-12 08:50:39,323 INFO: Application started [in /home/rudeak/Projects/fallen_stars/app/__init__.py:37]
2019-03-12 08:50:46,189 INFO: Application started [in /home/rudeak/Projects/fallen_stars/app/__init__.py:37]
2019-03-12 08:55:59,602 INFO: Application started [in /home/rudeak/Projects/fallen_stars/app/__init__.py:37]
2019-03-12 11:39:23,691 INFO: Application started [in /home/rudeak/Projects/fallen_stars/app/__init__.py:37]
2019-03-12 11:39:35,418 INFO: Application started [in /home/rudeak/Projects/fallen_stars/app/__init__.py:37]
2019-03-12 11:39:47,902 INFO: Application started [in /home/rudeak/Projects/fallen_stars/app/__init__.py:37]
2019-03-12 11:44:38,105 INFO: Application started [in /home/rudeak/Projects/fallen_stars/app/__init__.py:37]
2019-03-12 11:46:11,133 INFO: Application started [in /home/rudeak/Projects/fallen_stars/app/__init__.py:37]
2019-03-12 11:46:46,416 INFO: Application started [in /home/rudeak/Projects/fallen_stars/app/__init__.py:37]
2019-03-12 11:49:38,122 INFO: Application started [in /home/rudeak/Projects/fallen_stars/app/__init__.py:37]
2019-03-12 11:57:45,440 INFO: Application started [in /home/rudeak/Projects/fallen_stars/app/__init__.py:37]
2019-03-12 11:59:18,728 INFO: Application started [in /home/rudeak/Projects/fallen_stars/app/__init__.py:37]
2019-03-12 12:02:01,851 INFO: Application started [in /home/rudeak/Projects/fallen_stars/app/__init__.py:37]
2019-03-12 12:02:08,688 INFO: Application started [in /home/rudeak/Projects/fallen_stars/app/__init__.py:37]
2019-03-12 12:03:27,731 INFO: Application started [in /home/rudeak/Projects/fallen_stars/app/__init__.py:37]
2019-03-12 12:05:49,375 INFO: Application started [in /home/rudeak/Projects/fallen_stars/app/__init__.py:37]
2019-03-12 12:10:32,204 INFO: Application started [in /home/rudeak/Projects/fallen_stars/app/__init__.py:37]
2019-03-12 12:10:38,497 INFO: Application started [in /home/rudeak/Projects/fallen_stars/app/__init__.py:37]
2019-03-12 12:16:14,801 INFO: Application started [in /home/rudeak/Projects/fallen_stars/app/__init__.py:37]
2019-03-12 12:16:35,835 INFO: Application started [in /home/rudeak/Projects/fallen_stars/app/__init__.py:37]
2019-03-12 12:16:42,309 INFO: Application started [in /home/rudeak/Projects/fallen_stars/app/__init__.py:37]
2019-03-12 12:16:49,626 INFO: Application started [in /home/rudeak/Projects/fallen_stars/app/__init__.py:37]
2019-03-12 12:16:56,305 INFO: Application started [in /home/rudeak/Projects/fallen_stars/app/__init__.py:37]
2019-03-12 12:23:36,902 INFO: Application started [in /home/rudeak/Projects/fallen_stars/app/__init__.py:37]
2019-03-12 12:25:01,538 INFO: Application started [in /home/rudeak/Projects/fallen_stars/app/__init__.py:37]
2019-03-12 12:28:43,565 INFO: Application started [in /home/rudeak/Projects/fallen_stars/app/__init__.py:37]
2019-03-12 12:32:04,370 INFO: Application started [in /home/rudeak/Projects/fallen_stars/app/__init__.py:37]
2019-03-12 12:33:39,459 INFO: Application started [in /home/rudeak/Projects/fallen_stars/app/__init__.py:37]
2019-03-12 12:34:39,152 INFO: Application started [in /home/rudeak/Projects/fallen_stars/app/__init__.py:37]
2019-03-12 12:38:45,680 INFO: Application started [in /home/rudeak/Projects/fallen_stars/app/__init__.py:37]
2019-03-12 12:40:24,761 INFO: Application started [in /home/rudeak/Projects/fallen_stars/app/__init__.py:37]
2019-03-12 12:41:08,986 INFO: Application started [in /home/rudeak/Projects/fallen_stars/app/__init__.py:37]
2019-03-12 12:41:49,929 INFO: Application started [in /home/rudeak/Projects/fallen_stars/app/__init__.py:37]
2019-03-12 12:47:58,771 INFO: Application started [in /home/rudeak/Projects/fallen_stars/app/__init__.py:37]
2019-03-12 12:51:29,971 INFO: Application started [in /home/rudeak/Projects/fallen_stars/app/__init__.py:37]
2019-03-12 12:54:53,016 INFO: Application started [in /home/rudeak/Projects/fallen_stars/app/__init__.py:37]
2019-03-12 12:56:58,450 INFO: Application started [in /home/rudeak/Projects/fallen_stars/app/__init__.py:37]
2019-03-12 13:09:10,994 INFO: Application started [in /home/rudeak/Projects/fallen_stars/app/__init__.py:37]
2019-03-12 13:15:20,627 INFO: Application started [in /home/rudeak/Projects/fallen_stars/app/__init__.py:37]
2019-03-12 13:17:06,547 INFO: Application started [in /home/rudeak/Projects/fallen_stars/app/__init__.py:37]
2019-03-12 13:17:41,924 INFO: Application started [in /home/rudeak/Projects/fallen_stars/app/__init__.py:37]
2019-03-12 13:18:26,341 INFO: Application started [in /home/rudeak/Projects/fallen_stars/app/__init__.py:37]
2019-03-12 13:19:57,579 INFO: Application started [in /home/rudeak/Projects/fallen_stars/app/__init__.py:37]
2019-03-12 13:21:15,573 INFO: Application started [in /home/rudeak/Projects/fallen_stars/app/__init__.py:37]
2019-03-12 13:21:52,787 INFO: Application started [in /home/rudeak/Projects/fallen_stars/app/__init__.py:37]
2019-03-12 13:22:43,231 INFO: Application started [in /home/rudeak/Projects/fallen_stars/app/__init__.py:37]
